…
    ## [1] 51

``` r
brfss_overall_health %>% 
  group_by(location_abbr) %>% 
  mutate(N = n()) %>% 
  distinct(location_abbr, N) %>% 
  arrange(desc(N))   # number of time of being observed for each state
```

    ## # A tibble: 51 x 2
    ## # Groups:   location_abbr [51]
    ##    location_abbr     N
    ##    <chr>         <int>
    ##  1 NJ              144
    ##  2 FL              117
    ##  3 NC              115
    ##  4 WA               96
    ##  5 MD               90
    ##  6 MA               79
    ##  7 TX               70
    ##  8 NY               65
    ##  9 SC               61
    ## 10 CO               59
    ## # ... with 41 more rows
…
